\relax 
\providecommand\HyperFirstAtBeginDocument{\AtBeginDocument}
\HyperFirstAtBeginDocument{\ifx\hyper@anchor\@undefined
\global\let\oldcontentsline\contentsline
\gdef\contentsline#1#2#3#4{\oldcontentsline{#1}{#2}{#3}}
\global\let\oldnewlabel\newlabel
\gdef\newlabel#1#2{\newlabelxx{#1}#2}
\gdef\newlabelxx#1#2#3#4#5#6{\oldnewlabel{#1}{{#2}{#3}}}
\AtEndDocument{\ifx\hyper@anchor\@undefined
\let\contentsline\oldcontentsline
\let\newlabel\oldnewlabel
\fi}
\fi}
\global\let\hyper@last\relax 
\gdef\HyperFirstAtBeginDocument#1{#1}
\providecommand\HyField@AuxAddToFields[1]{}
\@writefile{lof}{\contentsline {figure}{\numberline {1}{\ignorespaces Initial Graph}}{1}{figure.1}}
\newlabel{fig:Q11}{{1}{1}{Initial Graph\relax }{figure.1}{}}
\@writefile{lof}{\contentsline {figure}{\numberline {2}{\ignorespaces Residual Graph after first D-scaling phase}}{2}{figure.2}}
\newlabel{fig:Q11a}{{2}{2}{Residual Graph after first D-scaling phase\relax }{figure.2}{}}
\@writefile{lof}{\contentsline {figure}{\numberline {3}{\ignorespaces Residual Graph after second D-scaling phase}}{2}{figure.3}}
\newlabel{fig:Q11b}{{3}{2}{Residual Graph after second D-scaling phase\relax }{figure.3}{}}
\@writefile{lof}{\contentsline {figure}{\numberline {4}{\ignorespaces Graph for Q1.4}}{3}{figure.4}}
\newlabel{fig:Q14}{{4}{3}{Graph for Q1.4\relax }{figure.4}{}}
\@writefile{loa}{\contentsline {algorithm}{\numberline {1}{\ignorespaces findNewMaxFlow Algorithm}}{3}{algorithm.1}}
\@writefile{lof}{\contentsline {figure}{\numberline {5}{\ignorespaces Graph for Q1.7. Max flow here is 0}}{3}{figure.5}}
\newlabel{fig:Q17}{{5}{3}{Graph for Q1.7. Max flow here is 0\relax }{figure.5}{}}
\@writefile{lof}{\contentsline {figure}{\numberline {6}{\ignorespaces New Graph for Q1.7. Max flow here is 10}}{4}{figure.6}}
\newlabel{fig:Q17b}{{6}{4}{New Graph for Q1.7. Max flow here is 10\relax }{figure.6}{}}
